%YAML 1.1
%TAG !u! tag:unity3d.com,2011:
--- !u!29 &1
OcclusionCullingSettings:
  m_ObjectHideFlags: 0
  serializedVersion: 2
  m_OcclusionBakeSettings:
    smallestOccluder: 5
    smallestHole: 0.25
    backfaceThreshold: 100
  m_SceneGUID: 00000000000000000000000000000000
  m_OcclusionCullingData: {fileID: 0}
--- !u!104 &2
RenderSettings:
  m_ObjectHideFlags: 0
  serializedVersion: 9
  m_Fog: 0
  m_FogColor: {r: 0.5, g: 0.5, b: 0.5, a: 1}
  m_FogMode: 3
  m_FogDensity: 0.01
  m_LinearFogStart: 0
  m_LinearFogEnd: 300
  m_AmbientSkyColor: {r: 0.212, g: 0.227, b: 0.259, a: 1}
  m_AmbientEquatorColor: {r: 0.114, g: 0.125, b: 0.133, a: 1}
  m_AmbientGroundColor: {r: 0.047, g: 0.043, b: 0.035, a: 1}
  m_AmbientIntensity: 1
  m_AmbientMode: 0
  m_SubtractiveShadowColor: {r: 0.42, g: 0.478, b: 0.627, a: 1}
  m_SkyboxMaterial: {fileID: 10304, guid: 0000000000000000f000000000000000, type: 0}
  m_HaloStrength: 0.5
  m_FlareStrength: 1
  m_FlareFadeSpeed: 3
  m_HaloTexture: {fileID: 0}
  m_SpotCookie: {fileID: 10001, guid: 0000000000000000e000000000000000, type: 0}
  m_DefaultReflectionMode: 0
  m_DefaultReflectionResolution: 128
  m_ReflectionBounces: 1
  m_ReflectionIntensity: 1
  m_CustomReflection: {fileID: 0}
  m_Sun: {fileID: 0}
  m_IndirectSpecularColor: {r: 0.43956253, g: 0.48793715, b: 0.56816804, a: 1}
  m_UseRadianceAmbientProbe: 0
--- !u!157 &3
LightmapSettings:
  m_ObjectHideFlags: 0
  serializedVersion: 12
  m_GIWorkflowMode: 1
  m_GISettings:
    serializedVersion: 2
    m_BounceScale: 1
    m_IndirectOutputScale: 1
    m_AlbedoBoost: 1
    m_EnvironmentLightingMode: 0
    m_EnableBakedLightmaps: 1
    m_EnableRealtimeLightmaps: 0
  m_LightmapEditorSettings:
    serializedVersion: 12
    m_Resolution: 2
    m_BakeResolution: 40
    m_AtlasSize: 1024
    m_AO: 0
    m_AOMaxDistance: 1
    m_CompAOExponent: 1
    m_CompAOExponentDirect: 0
    m_ExtractAmbientOcclusion: 0
    m_Padding: 2
    m_LightmapParameters: {fileID: 0}
    m_LightmapsBakeMode: 1
    m_TextureCompression: 1
    m_FinalGather: 0
    m_FinalGatherFiltering: 1
    m_FinalGatherRayCount: 256
    m_ReflectionCompression: 2
    m_MixedBakeMode: 2
    m_BakeBackend: 1
    m_PVRSampling: 1
    m_PVRDirectSampleCount: 32
    m_PVRSampleCount: 512
    m_PVRBounces: 2
    m_PVREnvironmentSampleCount: 256
    m_PVREnvironmentReferencePointCount: 2048
    m_PVRFilteringMode: 1
    m_PVRDenoiserTypeDirect: 1
    m_PVRDenoiserTypeIndirect: 1
    m_PVRDenoiserTypeAO: 1
    m_PVRFilterTypeDirect: 0
    m_PVRFilterTypeIndirect: 0
    m_PVRFilterTypeAO: 0
    m_PVREnvironmentMIS: 1
    m_PVRCulling: 1
    m_PVRFilteringGaussRadiusDirect: 1
    m_PVRFilteringGaussRadiusIndirect: 5
    m_PVRFilteringGaussRadiusAO: 2
    m_PVRFilteringAtrousPositionSigmaDirect: 0.5
    m_PVRFilteringAtrousPositionSigmaIndirect: 2
    m_PVRFilteringAtrousPositionSigmaAO: 1
    m_ExportTrainingData: 0
    m_TrainingDataDestination: TrainingData
    m_LightProbeSampleCountMultiplier: 4
  m_LightingDataAsset: {fileID: 112000000, guid: aaf41e2ca72e2084a8856fd6cca02781, type: 2}
  m_LightingSettings: {fileID: 0}
--- !u!196 &4
NavMeshSettings:
  serializedVersion: 2
  m_ObjectHideFlags: 0
  m_BuildSettings:
    serializedVersion: 2
    agentTypeID: 0
    agentRadius: 0.5
    agentHeight: 2
    agentSlope: 45
    agentClimb: 0.4
    ledgeDropHeight: 0
    maxJumpAcrossDistance: 0
    minRegionArea: 2
    manualCellSize: 0
    cellSize: 0.16666667
    manualTileSize: 0
    tileSize: 256
    accuratePlacement: 0
    maxJobWorkers: 0
    preserveTilesOutsideBounds: 0
    debug:
      m_Flags: 0
  m_NavMeshData: {fileID: 0}
--- !u!1001 &5316123
PrefabInstance:
  m_ObjectHideFlags: 0
  serializedVersion: 2
  m_Modification:
    m_TransformParent: {fileID: 0}
    m_Modifications:
    - target: {fileID: 5825081228021389210, guid: 231cc86bd29dbc745b9e781e98583c8a, type: 3}
      propertyPath: m_LocalPosition.x
      value: 0
      objectReference: {fileID: 0}
    - target: {fileID: 5825081228021389210, guid: 231cc86bd29dbc745b9e781e98583c8a, type: 3}
      propertyPath: m_LocalPosition.y
      value: 0
      objectReference: {fileID: 0}
    - target: {fileID: 5825081228021389210, guid: 231cc86bd29dbc745b9e781e98583c8a, type: 3}
      propertyPath: m_LocalPosition.z
      value: 0
      objectReference: {fileID: 0}
    - target: {fileID: 5825081228021389210, guid: 231cc86bd29dbc745b9e781e98583c8a, type: 3}
      propertyPath: m_LocalRotation.x
      value: 0
      objectReference: {fileID: 0}
    - target: {fileID: 5825081228021389210, guid: 231cc86bd29dbc745b9e781e98583c8a, type: 3}
      propertyPath: m_LocalRotation.y
      value: 0
      objectReference: {fileID: 0}
    - target: {fileID: 5825081228021389210, guid: 231cc86bd29dbc745b9e781e98583c8a, type: 3}
      propertyPath: m_LocalRotation.z
      value: 0
      objectReference: {fileID: 0}
    - target: {fileID: 5825081228021389210, guid: 231cc86bd29dbc745b9e781e98583c8a, type: 3}
      propertyPath: m_LocalRotation.w
      value: 1
      objectReference: {fileID: 0}
    - target: {fileID: 5825081228021389210, guid: 231cc86bd29dbc745b9e781e98583c8a, type: 3}
      propertyPath: m_RootOrder
      value: 0
      objectReference: {fileID: 0}
    - target: {fileID: 5825081228021389210, guid: 231cc86bd29dbc745b9e781e98583c8a, type: 3}
      propertyPath: m_LocalEulerAnglesHint.x
      value: 0
      objectReference: {fileID: 0}
    - target: {fileID: 5825081228021389210, guid: 231cc86bd29dbc745b9e781e98583c8a, type: 3}
      propertyPath: m_LocalEulerAnglesHint.y
      value: 0
      objectReference: {fileID: 0}
    - target: {fileID: 5825081228021389210, guid: 231cc86bd29dbc745b9e781e98583c8a, type: 3}
      propertyPath: m_LocalEulerAnglesHint.z
      value: 0
      objectReference: {fileID: 0}
    - target: {fileID: 6601441627602062624, guid: 231cc86bd29dbc745b9e781e98583c8a, type: 3}
      propertyPath: m_Name
      value: SimpleDounut
      objectReference: {fileID: 0}
    m_RemovedComponents: []
  m_SourcePrefab: {fileID: 100100000, guid: 231cc86bd29dbc745b9e781e98583c8a, type: 3}
--- !u!1001 &496013176
PrefabInstance:
  m_ObjectHideFlags: 0
  serializedVersion: 2
  m_Modification:
    m_TransformParent: {fileID: 0}
    m_Modifications:
    - target: {fileID: 3283167836564116294, guid: 1f19c3c202fbcc24ca94d914a90a7b47, type: 3}
      propertyPath: m_Size.y
      value: 6.7703595
      objectReference: {fileID: 0}
    - target: {fileID: 3283167836564116294, guid: 1f19c3c202fbcc24ca94d914a90a7b47, type: 3}
      propertyPath: m_Size.z
      value: 6.3112288
      objectReference: {fileID: 0}
    - target: {fileID: 3283167836564116294, guid: 1f19c3c202fbcc24ca94d914a90a7b47, type: 3}
      propertyPath: m_Center.x
      value: -0.0000000100168265
      objectReference: {fileID: 0}
    - target: {fileID: 3283167836564116294, guid: 1f19c3c202fbcc24ca94d914a90a7b47, type: 3}
      propertyPath: m_Center.y
      value: -0.8691529
      objectReference: {fileID: 0}
    - target: {fileID: 3283167836564116294, guid: 1f19c3c202fbcc24ca94d914a90a7b47, type: 3}
      propertyPath: m_Center.z
      value: 2.6555867
      objectReference: {fileID: 0}
    - target: {fileID: 3283167836564116294, guid: 1f19c3c202fbcc24ca94d914a90a7b47, type: 3}
      propertyPath: m_Size.x
      value: 16.674242
      objectReference: {fileID: 0}
    - target: {fileID: 3283167836564116313, guid: 1f19c3c202fbcc24ca94d914a90a7b47, type: 3}
      propertyPath: OnClick.m_PersistentCalls.m_Calls.Array.data[0].m_Target
      value: 
      objectReference: {fileID: 1698561515}
    - target: {fileID: 3283167836564116313, guid: 1f19c3c202fbcc24ca94d914a90a7b47, type: 3}
      propertyPath: OnClick.m_PersistentCalls.m_Calls.Array.data[0].m_MethodName
      value: QuitGame
      objectReference: {fileID: 0}
    - target: {fileID: 3283167836564116313, guid: 1f19c3c202fbcc24ca94d914a90a7b47, type: 3}
      propertyPath: OnClick.m_PersistentCalls.m_Calls.Array.data[0].m_TargetAssemblyTypeName
      value: SceneController, Assembly-CSharp
      objectReference: {fileID: 0}
    - target: {fileID: 3283167836564116313, guid: 1f19c3c202fbcc24ca94d914a90a7b47, type: 3}
      propertyPath: OnClick.m_PersistentCalls.m_Calls.Array.data[0].m_Mode
      value: 1
      objectReference: {fileID: 0}
    - target: {fileID: 3283167837295963000, guid: 1f19c3c202fbcc24ca94d914a90a7b47, type: 3}
      propertyPath: m_Name
      value: QuitButton
      objectReference: {fileID: 0}
    - target: {fileID: 3283167837295963003, guid: 1f19c3c202fbcc24ca94d914a90a7b47, type: 3}
      propertyPath: m_text
      value: Quit
      objectReference: {fileID: 0}
    - target: {fileID: 3283167837295963005, guid: 1f19c3c202fbcc24ca94d914a90a7b47, type: 3}
      propertyPath: m_LocalPosition.x
      value: 0
      objectReference: {fileID: 0}
    - target: {fileID: 3283167837295963005, guid: 1f19c3c202fbcc24ca94d914a90a7b47, type: 3}
      propertyPath: m_LocalPosition.y
      value: 0
      objectReference: {fileID: 0}
    - target: {fileID: 3283167837295963005, guid: 1f19c3c202fbcc24ca94d914a90a7b47, type: 3}
      propertyPath: m_LocalPosition.z
      value: 0.76
      objectReference: {fileID: 0}
    - target: {fileID: 3283167837295963005, guid: 1f19c3c202fbcc24ca94d914a90a7b47, type: 3}
      propertyPath: m_LocalRotation.x
      value: 0.21850799
      objectReference: {fileID: 0}
    - target: {fileID: 3283167837295963005, guid: 1f19c3c202fbcc24ca94d914a90a7b47, type: 3}
      propertyPath: m_LocalRotation.y
      value: -0.6724985
      objectReference: {fileID: 0}
    - target: {fileID: 3283167837295963005, guid: 1f19c3c202fbcc24ca94d914a90a7b47, type: 3}
      propertyPath: m_LocalRotation.z
      value: 0.6724985
      objectReference: {fileID: 0}
    - target: {fileID: 3283167837295963005, guid: 1f19c3c202fbcc24ca94d914a90a7b47, type: 3}
      propertyPath: m_LocalRotation.w
      value: 0.21850799
      objectReference: {fileID: 0}
    - target: {fileID: 3283167837295963005, guid: 1f19c3c202fbcc24ca94d914a90a7b47, type: 3}
      propertyPath: m_RootOrder
      value: 6
      objectReference: {fileID: 0}
    - target: {fileID: 3283167837295963005, guid: 1f19c3c202fbcc24ca94d914a90a7b47, type: 3}
      propertyPath: m_LocalEulerAnglesHint.x
      value: 90
      objectReference: {fileID: 0}
    - target: {fileID: 3283167837295963005, guid: 1f19c3c202fbcc24ca94d914a90a7b47, type: 3}
      propertyPath: m_LocalEulerAnglesHint.y
      value: -144
      objectReference: {fileID: 0}
    - target: {fileID: 3283167837295963005, guid: 1f19c3c202fbcc24ca94d914a90a7b47, type: 3}
      propertyPath: m_LocalEulerAnglesHint.z
      value: 0
      objectReference: {fileID: 0}
    - target: {fileID: 3283167837295963005, guid: 1f19c3c202fbcc24ca94d914a90a7b47, type: 3}
      propertyPath: m_AnchoredPosition.x
      value: 0.566
      objectReference: {fileID: 0}
    - target: {fileID: 3283167837295963005, guid: 1f19c3c202fbcc24ca94d914a90a7b47, type: 3}
      propertyPath: m_AnchoredPosition.y
      value: 0.3
      objectReference: {fileID: 0}
    - target: {fileID: 3283167837295963005, guid: 1f19c3c202fbcc24ca94d914a90a7b47, type: 3}
      propertyPath: m_SizeDelta.x
      value: 30
      objectReference: {fileID: 0}
    - target: {fileID: 3283167837295963005, guid: 1f19c3c202fbcc24ca94d914a90a7b47, type: 3}
      propertyPath: m_SizeDelta.y
      value: 5
      objectReference: {fileID: 0}
    - target: {fileID: 3283167837295963005, guid: 1f19c3c202fbcc24ca94d914a90a7b47, type: 3}
      propertyPath: m_AnchorMin.x
      value: 0.5
      objectReference: {fileID: 0}
    - target: {fileID: 3283167837295963005, guid: 1f19c3c202fbcc24ca94d914a90a7b47, type: 3}
      propertyPath: m_AnchorMin.y
      value: 0.5
      objectReference: {fileID: 0}
    - target: {fileID: 3283167837295963005, guid: 1f19c3c202fbcc24ca94d914a90a7b47, type: 3}
      propertyPath: m_AnchorMax.x
      value: 0.5
      objectReference: {fileID: 0}
    - target: {fileID: 3283167837295963005, guid: 1f19c3c202fbcc24ca94d914a90a7b47, type: 3}
      propertyPath: m_AnchorMax.y
      value: 0.5
      objectReference: {fileID: 0}
    - target: {fileID: 3283167837295963005, guid: 1f19c3c202fbcc24ca94d914a90a7b47, type: 3}
      propertyPath: m_Pivot.x
      value: 0.5
      objectReference: {fileID: 0}
    - target: {fileID: 3283167837295963005, guid: 1f19c3c202fbcc24ca94d914a90a7b47, type: 3}
      propertyPath: m_Pivot.y
      value: 0.5
      objectReference: {fileID: 0}
    m_RemovedComponents: []
  m_SourcePrefab: {fileID: 100100000, guid: 1f19c3c202fbcc24ca94d914a90a7b47, type: 3}
--- !u!1001 &538748304
PrefabInstance:
  m_ObjectHideFlags: 0
  serializedVersion: 2
  m_Modification:
    m_TransformParent: {fileID: 0}
    m_Modifications:
    - target: {fileID: 1403188221529000930, guid: 5454c2940c7984041960303a66ec483c, type: 3}
      propertyPath: m_LocalPosition.x
      value: 0
      objectReference: {fileID: 0}
    - target: {fileID: 1403188221529000930, guid: 5454c2940c7984041960303a66ec483c, type: 3}
      propertyPath: m_LocalPosition.y
      value: -4
      objectReference: {fileID: 0}
    - target: {fileID: 1403188221529000930, guid: 5454c2940c7984041960303a66ec483c, type: 3}
      propertyPath: m_LocalPosition.z
      value: 0
      objectReference: {fileID: 0}
    - target: {fileID: 1403188221529000930, guid: 5454c2940c7984041960303a66ec483c, type: 3}
      propertyPath: m_LocalRotation.x
      value: 0
      objectReference: {fileID: 0}
    - target: {fileID: 1403188221529000930, guid: 5454c2940c7984041960303a66ec483c, type: 3}
      propertyPath: m_LocalRotation.y
      value: 0
      objectReference: {fileID: 0}
    - target: {fileID: 1403188221529000930, guid: 5454c2940c7984041960303a66ec483c, type: 3}
      propertyPath: m_LocalRotation.z
      value: 0
      objectReference: {fileID: 0}
    - target: {fileID: 1403188221529000930, guid: 5454c2940c7984041960303a66ec483c, type: 3}
      propertyPath: m_LocalRotation.w
      value: 1
      objectReference: {fileID: 0}
    - target: {fileID: 1403188221529000930, guid: 5454c2940c7984041960303a66ec483c, type: 3}
      propertyPath: m_RootOrder
      value: 11
      objectReference: {fileID: 0}
    - target: {fileID: 1403188221529000930, guid: 5454c2940c7984041960303a66ec483c, type: 3}
      propertyPath: m_LocalEulerAnglesHint.x
      value: 0
      objectReference: {fileID: 0}
    - target: {fileID: 1403188221529000930, guid: 5454c2940c7984041960303a66ec483c, type: 3}
      propertyPath: m_LocalEulerAnglesHint.y
      value: 0
      objectReference: {fileID: 0}
    - target: {fileID: 1403188221529000930, guid: 5454c2940c7984041960303a66ec483c, type: 3}
      propertyPath: m_LocalEulerAnglesHint.z
      value: 0
      objectReference: {fileID: 0}
    - target: {fileID: 1403188221529000931, guid: 5454c2940c7984041960303a66ec483c, type: 3}
      propertyPath: m_Name
      value: Background
      objectReference: {fileID: 0}
    m_RemovedComponents: []
  m_SourcePrefab: {fileID: 100100000, guid: 5454c2940c7984041960303a66ec483c, type: 3}
--- !u!1001 &583391208
PrefabInstance:
  m_ObjectHideFlags: 0
  serializedVersion: 2
  m_Modification:
    m_TransformParent: {fileID: 0}
    m_Modifications:
    - target: {fileID: 7679740918166500123, guid: 41c8399cb464b564ba02c4ecfa9ea6e8, type: 3}
      propertyPath: m_Name
      value: RaycastPlane
      objectReference: {fileID: 0}
    - target: {fileID: 7679740918166500127, guid: 41c8399cb464b564ba02c4ecfa9ea6e8, type: 3}
      propertyPath: m_LocalPosition.x
      value: 0
      objectReference: {fileID: 0}
    - target: {fileID: 7679740918166500127, guid: 41c8399cb464b564ba02c4ecfa9ea6e8, type: 3}
      propertyPath: m_LocalPosition.y
      value: 0
      objectReference: {fileID: 0}
    - target: {fileID: 7679740918166500127, guid: 41c8399cb464b564ba02c4ecfa9ea6e8, type: 3}
      propertyPath: m_LocalPosition.z
      value: 0
      objectReference: {fileID: 0}
    - target: {fileID: 7679740918166500127, guid: 41c8399cb464b564ba02c4ecfa9ea6e8, type: 3}
      propertyPath: m_LocalRotation.x
      value: 0
      objectReference: {fileID: 0}
    - target: {fileID: 7679740918166500127, guid: 41c8399cb464b564ba02c4ecfa9ea6e8, type: 3}
      propertyPath: m_LocalRotation.y
      value: 0
      objectReference: {fileID: 0}
    - target: {fileID: 7679740918166500127, guid: 41c8399cb464b564ba02c4ecfa9ea6e8, type: 3}
      propertyPath: m_LocalRotation.z
      value: 0
      objectReference: {fileID: 0}
    - target: {fileID: 7679740918166500127, guid: 41c8399cb464b564ba02c4ecfa9ea6e8, type: 3}
      propertyPath: m_LocalRotation.w
      value: 1
      objectReference: {fileID: 0}
    - target: {fileID: 7679740918166500127, guid: 41c8399cb464b564ba02c4ecfa9ea6e8, type: 3}
      propertyPath: m_RootOrder
      value: 10
      objectReference: {fileID: 0}
    - target: {fileID: 7679740918166500127, guid: 41c8399cb464b564ba02c4ecfa9ea6e8, type: 3}
      propertyPath: m_LocalEulerAnglesHint.x
      value: 0
      objectReference: {fileID: 0}
    - target: {fileID: 7679740918166500127, guid: 41c8399cb464b564ba02c4ecfa9ea6e8, type: 3}
      propertyPath: m_LocalEulerAnglesHint.y
      value: 0
      objectReference: {fileID: 0}
    - target: {fileID: 7679740918166500127, guid: 41c8399cb464b564ba02c4ecfa9ea6e8, type: 3}
      propertyPath: m_LocalEulerAnglesHint.z
      value: 0
      objectReference: {fileID: 0}
    m_RemovedComponents: []
  m_SourcePrefab: {fileID: 100100000, guid: 41c8399cb464b564ba02c4ecfa9ea6e8, type: 3}
--- !u!1 &782916856 stripped
GameObject:
  m_CorrespondingSourceObject: {fileID: 8869867836683189899, guid: 6230ee0ceb081924d83ce4148917131c, type: 3}
  m_PrefabInstance: {fileID: 857023934}
  m_PrefabAsset: {fileID: 0}
--- !u!1001 &857023934
PrefabInstance:
  m_ObjectHideFlags: 0
  serializedVersion: 2
  m_Modification:
    m_TransformParent: {fileID: 0}
    m_Modifications:
    - target: {fileID: 242408676, guid: 6230ee0ceb081924d83ce4148917131c, type: 3}
      propertyPath: yOffsetFromDonut
      value: 8
      objectReference: {fileID: 0}
    - target: {fileID: 242408676, guid: 6230ee0ceb081924d83ce4148917131c, type: 3}
      propertyPath: xRotationInit
      value: 71
      objectReference: {fileID: 0}
    - target: {fileID: 3938575950132799045, guid: 6230ee0ceb081924d83ce4148917131c, type: 3}
      propertyPath: m_Materials.Array.data[0]
      value: 
      objectReference: {fileID: 5424726709922191254, guid: 2c38d1eddcda1f74195e346acb87bd37, type: 2}
    - target: {fileID: 8869867836683189899, guid: 6230ee0ceb081924d83ce4148917131c, type: 3}
      propertyPath: m_Name
      value: Camera
      objectReference: {fileID: 0}
    - target: {fileID: 8869867836683189902, guid: 6230ee0ceb081924d83ce4148917131c, type: 3}
      propertyPath: m_LocalPosition.x
      value: 0
      objectReference: {fileID: 0}
    - target: {fileID: 8869867836683189902, guid: 6230ee0ceb081924d83ce4148917131c, type: 3}
      propertyPath: m_LocalPosition.y
      value: 15.78
      objectReference: {fileID: 0}
    - target: {fileID: 8869867836683189902, guid: 6230ee0ceb081924d83ce4148917131c, type: 3}
      propertyPath: m_LocalPosition.z
      value: 0
      objectReference: {fileID: 0}
    - target: {fileID: 8869867836683189902, guid: 6230ee0ceb081924d83ce4148917131c, type: 3}
      propertyPath: m_LocalRotation.x
      value: 0.7071068
      objectReference: {fileID: 0}
    - target: {fileID: 8869867836683189902, guid: 6230ee0ceb081924d83ce4148917131c, type: 3}
      propertyPath: m_LocalRotation.y
      value: 0
      objectReference: {fileID: 0}
    - target: {fileID: 8869867836683189902, guid: 6230ee0ceb081924d83ce4148917131c, type: 3}
      propertyPath: m_LocalRotation.z
      value: 0
      objectReference: {fileID: 0}
    - target: {fileID: 8869867836683189902, guid: 6230ee0ceb081924d83ce4148917131c, type: 3}
      propertyPath: m_LocalRotation.w
      value: 0.7071068
      objectReference: {fileID: 0}
    - target: {fileID: 8869867836683189902, guid: 6230ee0ceb081924d83ce4148917131c, type: 3}
      propertyPath: m_RootOrder
      value: 1
      objectReference: {fileID: 0}
    - target: {fileID: 8869867836683189902, guid: 6230ee0ceb081924d83ce4148917131c, type: 3}
      propertyPath: m_LocalEulerAnglesHint.x
      value: 90
      objectReference: {fileID: 0}
    - target: {fileID: 8869867836683189902, guid: 6230ee0ceb081924d83ce4148917131c, type: 3}
      propertyPath: m_LocalEulerAnglesHint.y
      value: 0
      objectReference: {fileID: 0}
    - target: {fileID: 8869867836683189902, guid: 6230ee0ceb081924d83ce4148917131c, type: 3}
      propertyPath: m_LocalEulerAnglesHint.z
      value: 0
      objectReference: {fileID: 0}
    m_RemovedComponents: []
  m_SourcePrefab: {fileID: 100100000, guid: 6230ee0ceb081924d83ce4148917131c, type: 3}
--- !u!1001 &1313450749
PrefabInstance:
  m_ObjectHideFlags: 0
  serializedVersion: 2
  m_Modification:
    m_TransformParent: {fileID: 0}
    m_Modifications:
    - target: {fileID: 3283167836564116294, guid: 1f19c3c202fbcc24ca94d914a90a7b47, type: 3}
      propertyPath: m_Size.y
      value: 6.7146087
      objectReference: {fileID: 0}
    - target: {fileID: 3283167836564116294, guid: 1f19c3c202fbcc24ca94d914a90a7b47, type: 3}
      propertyPath: m_Center.x
      value: -0.000000019269649
      objectReference: {fileID: 0}
    - target: {fileID: 3283167836564116294, guid: 1f19c3c202fbcc24ca94d914a90a7b47, type: 3}
      propertyPath: m_Center.y
      value: -0.89702755
      objectReference: {fileID: 0}
    - target: {fileID: 3283167836564116294, guid: 1f19c3c202fbcc24ca94d914a90a7b47, type: 3}
      propertyPath: m_Center.z
      value: 2.6555932
      objectReference: {fileID: 0}
    - target: {fileID: 3283167836564116294, guid: 1f19c3c202fbcc24ca94d914a90a7b47, type: 3}
      propertyPath: m_Size.x
      value: 20.777443
      objectReference: {fileID: 0}
    - target: {fileID: 3283167836564116313, guid: 1f19c3c202fbcc24ca94d914a90a7b47, type: 3}
      propertyPath: OnClick.m_PersistentCalls.m_Calls.Array.data[0].m_Target
      value: 
      objectReference: {fileID: 1698561515}
    - target: {fileID: 3283167836564116313, guid: 1f19c3c202fbcc24ca94d914a90a7b47, type: 3}
      propertyPath: OnClick.m_PersistentCalls.m_Calls.Array.data[0].m_MethodName
      value: LoadMultiplayer
      objectReference: {fileID: 0}
    - target: {fileID: 3283167836564116313, guid: 1f19c3c202fbcc24ca94d914a90a7b47, type: 3}
      propertyPath: OnClick.m_PersistentCalls.m_Calls.Array.data[0].m_TargetAssemblyTypeName
      value: SceneController, Assembly-CSharp
      objectReference: {fileID: 0}
    - target: {fileID: 3283167837295963000, guid: 1f19c3c202fbcc24ca94d914a90a7b47, type: 3}
      propertyPath: m_Name
      value: MultiPlayerButton
      objectReference: {fileID: 0}
    - target: {fileID: 3283167837295963003, guid: 1f19c3c202fbcc24ca94d914a90a7b47, type: 3}
      propertyPath: m_text
      value: Multiplayer
      objectReference: {fileID: 0}
    - target: {fileID: 3283167837295963005, guid: 1f19c3c202fbcc24ca94d914a90a7b47, type: 3}
      propertyPath: m_LocalPosition.x
      value: 0
      objectReference: {fileID: 0}
    - target: {fileID: 3283167837295963005, guid: 1f19c3c202fbcc24ca94d914a90a7b47, type: 3}
      propertyPath: m_LocalPosition.y
      value: 0
      objectReference: {fileID: 0}
    - target: {fileID: 3283167837295963005, guid: 1f19c3c202fbcc24ca94d914a90a7b47, type: 3}
      propertyPath: m_LocalPosition.z
      value: -0.123
      objectReference: {fileID: 0}
    - target: {fileID: 3283167837295963005, guid: 1f19c3c202fbcc24ca94d914a90a7b47, type: 3}
      propertyPath: m_LocalRotation.x
      value: -0.5526183
      objectReference: {fileID: 0}
    - target: {fileID: 3283167837295963005, guid: 1f19c3c202fbcc24ca94d914a90a7b47, type: 3}
      propertyPath: m_LocalRotation.y
      value: -0.44114962
      objectReference: {fileID: 0}
    - target: {fileID: 3283167837295963005, guid: 1f19c3c202fbcc24ca94d914a90a7b47, type: 3}
      propertyPath: m_LocalRotation.z
      value: 0.44114962
      objectReference: {fileID: 0}
    - target: {fileID: 3283167837295963005, guid: 1f19c3c202fbcc24ca94d914a90a7b47, type: 3}
      propertyPath: m_LocalRotation.w
      value: -0.5526183
      objectReference: {fileID: 0}
    - target: {fileID: 3283167837295963005, guid: 1f19c3c202fbcc24ca94d914a90a7b47, type: 3}
      propertyPath: m_RootOrder
      value: 4
      objectReference: {fileID: 0}
    - target: {fileID: 3283167837295963005, guid: 1f19c3c202fbcc24ca94d914a90a7b47, type: 3}
      propertyPath: m_LocalEulerAnglesHint.x
      value: 90
      objectReference: {fileID: 0}
    - target: {fileID: 3283167837295963005, guid: 1f19c3c202fbcc24ca94d914a90a7b47, type: 3}
      propertyPath: m_LocalEulerAnglesHint.y
      value: -282.8
      objectReference: {fileID: 0}
    - target: {fileID: 3283167837295963005, guid: 1f19c3c202fbcc24ca94d914a90a7b47, type: 3}
      propertyPath: m_LocalEulerAnglesHint.z
      value: 0
      objectReference: {fileID: 0}
    - target: {fileID: 3283167837295963005, guid: 1f19c3c202fbcc24ca94d914a90a7b47, type: 3}
      propertyPath: m_AnchoredPosition.x
      value: -0.87100005
      objectReference: {fileID: 0}
    - target: {fileID: 3283167837295963005, guid: 1f19c3c202fbcc24ca94d914a90a7b47, type: 3}
      propertyPath: m_AnchoredPosition.y
      value: 0.3
      objectReference: {fileID: 0}
    - target: {fileID: 3283167837295963005, guid: 1f19c3c202fbcc24ca94d914a90a7b47, type: 3}
      propertyPath: m_SizeDelta.x
      value: 30
      objectReference: {fileID: 0}
    - target: {fileID: 3283167837295963005, guid: 1f19c3c202fbcc24ca94d914a90a7b47, type: 3}
      propertyPath: m_SizeDelta.y
      value: 5
      objectReference: {fileID: 0}
    - target: {fileID: 3283167837295963005, guid: 1f19c3c202fbcc24ca94d914a90a7b47, type: 3}
      propertyPath: m_AnchorMin.x
      value: 0.5
      objectReference: {fileID: 0}
    - target: {fileID: 3283167837295963005, guid: 1f19c3c202fbcc24ca94d914a90a7b47, type: 3}
      propertyPath: m_AnchorMin.y
      value: 0.5
      objectReference: {fileID: 0}
    - target: {fileID: 3283167837295963005, guid: 1f19c3c202fbcc24ca94d914a90a7b47, type: 3}
      propertyPath: m_AnchorMax.x
      value: 0.5
      objectReference: {fileID: 0}
    - target: {fileID: 3283167837295963005, guid: 1f19c3c202fbcc24ca94d914a90a7b47, type: 3}
      propertyPath: m_AnchorMax.y
      value: 0.5
      objectReference: {fileID: 0}
    - target: {fileID: 3283167837295963005, guid: 1f19c3c202fbcc24ca94d914a90a7b47, type: 3}
      propertyPath: m_Pivot.x
      value: 0.5
      objectReference: {fileID: 0}
    - target: {fileID: 3283167837295963005, guid: 1f19c3c202fbcc24ca94d914a90a7b47, type: 3}
      propertyPath: m_Pivot.y
      value: 0.5
      objectReference: {fileID: 0}
    m_RemovedComponents: []
  m_SourcePrefab: {fileID: 100100000, guid: 1f19c3c202fbcc24ca94d914a90a7b47, type: 3}
--- !u!1001 &1561326810
PrefabInstance:
  m_ObjectHideFlags: 0
  serializedVersion: 2
  m_Modification:
    m_TransformParent: {fileID: 0}
    m_Modifications:
    - target: {fileID: 2855638317366898265, guid: 13bb7cff99d870648bcb6912cec62156, type: 3}
      propertyPath: mainCamera
      value: 
      objectReference: {fileID: 782916856}
    - target: {fileID: 2855638317366898265, guid: 13bb7cff99d870648bcb6912cec62156, type: 3}
      propertyPath: speed
      value: 1
      objectReference: {fileID: 0}
    - target: {fileID: 2855638317366898265, guid: 13bb7cff99d870648bcb6912cec62156, type: 3}
      propertyPath: maxVelocityChange
      value: 1
      objectReference: {fileID: 0}
    - target: {fileID: 2855638317366898265, guid: 13bb7cff99d870648bcb6912cec62156, type: 3}
      propertyPath: facing
      value: 1
      objectReference: {fileID: 0}
    - target: {fileID: 7610548020175201687, guid: 13bb7cff99d870648bcb6912cec62156, type: 3}
      propertyPath: m_LocalRotation.y
      value: 0
      objectReference: {fileID: 0}
    - target: {fileID: 7610548020175201687, guid: 13bb7cff99d870648bcb6912cec62156, type: 3}
      propertyPath: m_LocalRotation.w
      value: 1
      objectReference: {fileID: 0}
    - target: {fileID: 7610548020175201687, guid: 13bb7cff99d870648bcb6912cec62156, type: 3}
      propertyPath: m_LocalEulerAnglesHint.y
      value: 0
      objectReference: {fileID: 0}
    - target: {fileID: 7932141208956883274, guid: 13bb7cff99d870648bcb6912cec62156, type: 3}
      propertyPath: m_Name
      value: Player
      objectReference: {fileID: 0}
    - target: {fileID: 7932141208956883275, guid: 13bb7cff99d870648bcb6912cec62156, type: 3}
      propertyPath: m_LocalPosition.x
      value: -0.006
      objectReference: {fileID: 0}
    - target: {fileID: 7932141208956883275, guid: 13bb7cff99d870648bcb6912cec62156, type: 3}
      propertyPath: m_LocalPosition.y
      value: 0.07
      objectReference: {fileID: 0}
    - target: {fileID: 7932141208956883275, guid: 13bb7cff99d870648bcb6912cec62156, type: 3}
      propertyPath: m_LocalPosition.z
      value: -0.965
      objectReference: {fileID: 0}
    - target: {fileID: 7932141208956883275, guid: 13bb7cff99d870648bcb6912cec62156, type: 3}
      propertyPath: m_LocalRotation.x
      value: 0
      objectReference: {fileID: 0}
    - target: {fileID: 7932141208956883275, guid: 13bb7cff99d870648bcb6912cec62156, type: 3}
      propertyPath: m_LocalRotation.y
      value: 0
      objectReference: {fileID: 0}
    - target: {fileID: 7932141208956883275, guid: 13bb7cff99d870648bcb6912cec62156, type: 3}
      propertyPath: m_LocalRotation.z
      value: 0
      objectReference: {fileID: 0}
    - target: {fileID: 7932141208956883275, guid: 13bb7cff99d870648bcb6912cec62156, type: 3}
      propertyPath: m_LocalRotation.w
      value: 1
      objectReference: {fileID: 0}
    - target: {fileID: 7932141208956883275, guid: 13bb7cff99d870648bcb6912cec62156, type: 3}
      propertyPath: m_RootOrder
      value: 7
      objectReference: {fileID: 0}
    - target: {fileID: 7932141208956883275, guid: 13bb7cff99d870648bcb6912cec62156, type: 3}
      propertyPath: m_LocalEulerAnglesHint.x
      value: 0
      objectReference: {fileID: 0}
    - target: {fileID: 7932141208956883275, guid: 13bb7cff99d870648bcb6912cec62156, type: 3}
      propertyPath: m_LocalEulerAnglesHint.y
      value: 0
      objectReference: {fileID: 0}
    - target: {fileID: 7932141208956883275, guid: 13bb7cff99d870648bcb6912cec62156, type: 3}
      propertyPath: m_LocalEulerAnglesHint.z
      value: 0
      objectReference: {fileID: 0}
    - target: {fileID: 8392398855191192027, guid: 13bb7cff99d870648bcb6912cec62156, type: 3}
      propertyPath: m_LocalRotation.y
      value: 0
      objectReference: {fileID: 0}
    - target: {fileID: 8392398855191192027, guid: 13bb7cff99d870648bcb6912cec62156, type: 3}
      propertyPath: m_LocalRotation.w
      value: 1
      objectReference: {fileID: 0}
    - target: {fileID: 8392398855191192027, guid: 13bb7cff99d870648bcb6912cec62156, type: 3}
      propertyPath: m_LocalEulerAnglesHint.y
      value: 0
      objectReference: {fileID: 0}
    - target: {fileID: 8392398855191192027, guid: 13bb7cff99d870648bcb6912cec62156, type: 3}
      propertyPath: m_LocalPosition.z
      value: 0.101
      objectReference: {fileID: 0}
    - target: {fileID: 8392398855191192027, guid: 13bb7cff99d870648bcb6912cec62156, type: 3}
      propertyPath: m_LocalPosition.x
      value: -0.003
      objectReference: {fileID: 0}
    - target: {fileID: 8392398855191192027, guid: 13bb7cff99d870648bcb6912cec62156, type: 3}
      propertyPath: m_LocalPosition.y
      value: 0.117
      objectReference: {fileID: 0}
    m_RemovedComponents: []
  m_SourcePrefab: {fileID: 100100000, guid: 13bb7cff99d870648bcb6912cec62156, type: 3}
--- !u!1001 &1579124952
PrefabInstance:
  m_ObjectHideFlags: 0
  serializedVersion: 2
  m_Modification:
    m_TransformParent: {fileID: 0}
    m_Modifications:
    - target: {fileID: 3283167836564116294, guid: 1f19c3c202fbcc24ca94d914a90a7b47, type: 3}
      propertyPath: m_Size.y
      value: 6.8007894
      objectReference: {fileID: 0}
    - target: {fileID: 3283167836564116294, guid: 1f19c3c202fbcc24ca94d914a90a7b47, type: 3}
      propertyPath: m_Center.x
      value: -0.000000069937045
      objectReference: {fileID: 0}
    - target: {fileID: 3283167836564116294, guid: 1f19c3c202fbcc24ca94d914a90a7b47, type: 3}
      propertyPath: m_Center.y
      value: -0.8539373
      objectReference: {fileID: 0}
    - target: {fileID: 3283167836564116294, guid: 1f19c3c202fbcc24ca94d914a90a7b47, type: 3}
      propertyPath: m_Center.z
      value: 2.6555932
      objectReference: {fileID: 0}
    - target: {fileID: 3283167836564116294, guid: 1f19c3c202fbcc24ca94d914a90a7b47, type: 3}
      propertyPath: m_Size.x
      value: 18.866943
      objectReference: {fileID: 0}
    - target: {fileID: 3283167836564116313, guid: 1f19c3c202fbcc24ca94d914a90a7b47, type: 3}
      propertyPath: OnClick.m_PersistentCalls.m_Calls.Array.data[0].m_Target
      value: 
      objectReference: {fileID: 1698561515}
    - target: {fileID: 3283167836564116313, guid: 1f19c3c202fbcc24ca94d914a90a7b47, type: 3}
      propertyPath: OnClick.m_PersistentCalls.m_Calls.Array.data[0].m_MethodName
      value: LoadOptions
      objectReference: {fileID: 0}
    - target: {fileID: 3283167836564116313, guid: 1f19c3c202fbcc24ca94d914a90a7b47, type: 3}
      propertyPath: OnClick.m_PersistentCalls.m_Calls.Array.data[0].m_TargetAssemblyTypeName
      value: SceneController, Assembly-CSharp
      objectReference: {fileID: 0}
    - target: {fileID: 3283167837295963000, guid: 1f19c3c202fbcc24ca94d914a90a7b47, type: 3}
      propertyPath: m_Name
      value: OptionsButton
      objectReference: {fileID: 0}
    - target: {fileID: 3283167837295963003, guid: 1f19c3c202fbcc24ca94d914a90a7b47, type: 3}
      propertyPath: m_text
      value: Options
      objectReference: {fileID: 0}
    - target: {fileID: 3283167837295963005, guid: 1f19c3c202fbcc24ca94d914a90a7b47, type: 3}
      propertyPath: m_LocalPosition.x
      value: 0
      objectReference: {fileID: 0}
    - target: {fileID: 3283167837295963005, guid: 1f19c3c202fbcc24ca94d914a90a7b47, type: 3}
      propertyPath: m_LocalPosition.y
      value: 0
      objectReference: {fileID: 0}
    - target: {fileID: 3283167837295963005, guid: 1f19c3c202fbcc24ca94d914a90a7b47, type: 3}
      propertyPath: m_LocalPosition.z
      value: -0.182
      objectReference: {fileID: 0}
    - target: {fileID: 3283167837295963005, guid: 1f19c3c202fbcc24ca94d914a90a7b47, type: 3}
      propertyPath: m_LocalRotation.x
      value: 0.5412784
      objectReference: {fileID: 0}
    - target: {fileID: 3283167837295963005, guid: 1f19c3c202fbcc24ca94d914a90a7b47, type: 3}
      propertyPath: m_LocalRotation.y
      value: -0.454992
      objectReference: {fileID: 0}
    - target: {fileID: 3283167837295963005, guid: 1f19c3c202fbcc24ca94d914a90a7b47, type: 3}
      propertyPath: m_LocalRotation.z
      value: 0.454992
      objectReference: {fileID: 0}
    - target: {fileID: 3283167837295963005, guid: 1f19c3c202fbcc24ca94d914a90a7b47, type: 3}
      propertyPath: m_LocalRotation.w
      value: 0.5412784
      objectReference: {fileID: 0}
    - target: {fileID: 3283167837295963005, guid: 1f19c3c202fbcc24ca94d914a90a7b47, type: 3}
      propertyPath: m_RootOrder
      value: 5
      objectReference: {fileID: 0}
    - target: {fileID: 3283167837295963005, guid: 1f19c3c202fbcc24ca94d914a90a7b47, type: 3}
      propertyPath: m_LocalEulerAnglesHint.x
      value: 90
      objectReference: {fileID: 0}
    - target: {fileID: 3283167837295963005, guid: 1f19c3c202fbcc24ca94d914a90a7b47, type: 3}
      propertyPath: m_LocalEulerAnglesHint.y
      value: -80.1
      objectReference: {fileID: 0}
    - target: {fileID: 3283167837295963005, guid: 1f19c3c202fbcc24ca94d914a90a7b47, type: 3}
      propertyPath: m_LocalEulerAnglesHint.z
      value: 0
      objectReference: {fileID: 0}
    - target: {fileID: 3283167837295963005, guid: 1f19c3c202fbcc24ca94d914a90a7b47, type: 3}
      propertyPath: m_AnchoredPosition.x
      value: 0.9
      objectReference: {fileID: 0}
    - target: {fileID: 3283167837295963005, guid: 1f19c3c202fbcc24ca94d914a90a7b47, type: 3}
      propertyPath: m_AnchoredPosition.y
      value: 0.3
      objectReference: {fileID: 0}
    - target: {fileID: 3283167837295963005, guid: 1f19c3c202fbcc24ca94d914a90a7b47, type: 3}
      propertyPath: m_SizeDelta.x
      value: 30
      objectReference: {fileID: 0}
    - target: {fileID: 3283167837295963005, guid: 1f19c3c202fbcc24ca94d914a90a7b47, type: 3}
      propertyPath: m_SizeDelta.y
      value: 5
      objectReference: {fileID: 0}
    - target: {fileID: 3283167837295963005, guid: 1f19c3c202fbcc24ca94d914a90a7b47, type: 3}
      propertyPath: m_AnchorMin.x
      value: 0.5
      objectReference: {fileID: 0}
    - target: {fileID: 3283167837295963005, guid: 1f19c3c202fbcc24ca94d914a90a7b47, type: 3}
      propertyPath: m_AnchorMin.y
      value: 0.5
      objectReference: {fileID: 0}
    - target: {fileID: 3283167837295963005, guid: 1f19c3c202fbcc24ca94d914a90a7b47, type: 3}
      propertyPath: m_AnchorMax.x
      value: 0.5
      objectReference: {fileID: 0}
    - target: {fileID: 3283167837295963005, guid: 1f19c3c202fbcc24ca94d914a90a7b47, type: 3}
      propertyPath: m_AnchorMax.y
      value: 0.5
      objectReference: {fileID: 0}
    - target: {fileID: 3283167837295963005, guid: 1f19c3c202fbcc24ca94d914a90a7b47, type: 3}
      propertyPath: m_Pivot.x
      value: 0.5
      objectReference: {fileID: 0}
    - target: {fileID: 3283167837295963005, guid: 1f19c3c202fbcc24ca94d914a90a7b47, type: 3}
      propertyPath: m_Pivot.y
      value: 0.5
      objectReference: {fileID: 0}
    m_RemovedComponents: []
  m_SourcePrefab: {fileID: 100100000, guid: 1f19c3c202fbcc24ca94d914a90a7b47, type: 3}
--- !u!1001 &1698561514
PrefabInstance:
  m_ObjectHideFlags: 0
  serializedVersion: 2
  m_Modification:
    m_TransformParent: {fileID: 0}
    m_Modifications:
    - target: {fileID: 2460086420881596082, guid: 50ec72c302a3fa04a82ad13c071436ae, type: 3}
      propertyPath: m_Name
      value: SceneController
      objectReference: {fileID: 0}
    - target: {fileID: 2460086420881596092, guid: 50ec72c302a3fa04a82ad13c071436ae, type: 3}
      propertyPath: m_LocalPosition.x
      value: 0
      objectReference: {fileID: 0}
    - target: {fileID: 2460086420881596092, guid: 50ec72c302a3fa04a82ad13c071436ae, type: 3}
      propertyPath: m_LocalPosition.y
      value: 0
      objectReference: {fileID: 0}
    - target: {fileID: 2460086420881596092, guid: 50ec72c302a3fa04a82ad13c071436ae, type: 3}
      propertyPath: m_LocalPosition.z
      value: 0
      objectReference: {fileID: 0}
    - target: {fileID: 2460086420881596092, guid: 50ec72c302a3fa04a82ad13c071436ae, type: 3}
      propertyPath: m_LocalRotation.x
      value: 0
      objectReference: {fileID: 0}
    - target: {fileID: 2460086420881596092, guid: 50ec72c302a3fa04a82ad13c071436ae, type: 3}
      propertyPath: m_LocalRotation.y
      value: 0
      objectReference: {fileID: 0}
    - target: {fileID: 2460086420881596092, guid: 50ec72c302a3fa04a82ad13c071436ae, type: 3}
      propertyPath: m_LocalRotation.z
      value: 0
      objectReference: {fileID: 0}
    - target: {fileID: 2460086420881596092, guid: 50ec72c302a3fa04a82ad13c071436ae, type: 3}
      propertyPath: m_LocalRotation.w
      value: 1
      objectReference: {fileID: 0}
    - target: {fileID: 2460086420881596092, guid: 50ec72c302a3fa04a82ad13c071436ae, type: 3}
      propertyPath: m_RootOrder
      value: 2
      objectReference: {fileID: 0}
    - target: {fileID: 2460086420881596092, guid: 50ec72c302a3fa04a82ad13c071436ae, type: 3}
      propertyPath: m_LocalEulerAnglesHint.x
      value: 0
      objectReference: {fileID: 0}
    - target: {fileID: 2460086420881596092, guid: 50ec72c302a3fa04a82ad13c071436ae, type: 3}
      propertyPath: m_LocalEulerAnglesHint.y
      value: 0
      objectReference: {fileID: 0}
    - target: {fileID: 2460086420881596092, guid: 50ec72c302a3fa04a82ad13c071436ae, type: 3}
      propertyPath: m_LocalEulerAnglesHint.z
      value: 0
      objectReference: {fileID: 0}
    - target: {fileID: 2460086420881596093, guid: 50ec72c302a3fa04a82ad13c071436ae, type: 3}
      propertyPath: creditsScene
      value: CreditsMenu
      objectReference: {fileID: 0}
    m_RemovedComponents: []
  m_SourcePrefab: {fileID: 100100000, guid: 50ec72c302a3fa04a82ad13c071436ae, type: 3}
--- !u!114 &1698561515 stripped
MonoBehaviour:
  m_CorrespondingSourceObject: {fileID: 2460086420881596093, guid: 50ec72c302a3fa04a82ad13c071436ae, type: 3}
  m_PrefabInstance: {fileID: 1698561514}
  m_PrefabAsset: {fileID: 0}
  m_GameObject: {fileID: 0}
  m_Enabled: 1
  m_EditorHideFlags: 0
  m_Script: {fileID: 11500000, guid: c272c4972b4ae99488158d69a4fae534, type: 3}
  m_Name: 
  m_EditorClassIdentifier: 
--- !u!1001 &1872545842
PrefabInstance:
  m_ObjectHideFlags: 0
  serializedVersion: 2
  m_Modification:
    m_TransformParent: {fileID: 0}
    m_Modifications:
    - target: {fileID: 3283167836564116294, guid: 1f19c3c202fbcc24ca94d914a90a7b47, type: 3}
      propertyPath: m_Size.y
      value: 6.795481
      objectReference: {fileID: 0}
    - target: {fileID: 3283167836564116294, guid: 1f19c3c202fbcc24ca94d914a90a7b47, type: 3}
      propertyPath: m_Size.z
      value: 6.3112288
      objectReference: {fileID: 0}
    - target: {fileID: 3283167836564116294, guid: 1f19c3c202fbcc24ca94d914a90a7b47, type: 3}
      propertyPath: m_Center.x
      value: 3.363676e-10
      objectReference: {fileID: 0}
    - target: {fileID: 3283167836564116294, guid: 1f19c3c202fbcc24ca94d914a90a7b47, type: 3}
      propertyPath: m_Center.y
      value: -0.8565925
      objectReference: {fileID: 0}
    - target: {fileID: 3283167836564116294, guid: 1f19c3c202fbcc24ca94d914a90a7b47, type: 3}
      propertyPath: m_Center.z
      value: 2.655589
      objectReference: {fileID: 0}
    - target: {fileID: 3283167836564116294, guid: 1f19c3c202fbcc24ca94d914a90a7b47, type: 3}
      propertyPath: m_Size.x
      value: 17.30734
      objectReference: {fileID: 0}
    - target: {fileID: 3283167836564116313, guid: 1f19c3c202fbcc24ca94d914a90a7b47, type: 3}
      propertyPath: OnClick.m_PersistentCalls.m_Calls.Array.data[0].m_Target
      value: 
      objectReference: {fileID: 1698561515}
    - target: {fileID: 3283167836564116313, guid: 1f19c3c202fbcc24ca94d914a90a7b47, type: 3}
      propertyPath: OnClick.m_PersistentCalls.m_Calls.Array.data[0].m_MethodName
      value: LoadCredits
      objectReference: {fileID: 0}
    - target: {fileID: 3283167836564116313, guid: 1f19c3c202fbcc24ca94d914a90a7b47, type: 3}
      propertyPath: OnClick.m_PersistentCalls.m_Calls.Array.data[0].m_TargetAssemblyTypeName
      value: SceneController, Assembly-CSharp
      objectReference: {fileID: 0}
    - target: {fileID: 3283167836564116313, guid: 1f19c3c202fbcc24ca94d914a90a7b47, type: 3}
      propertyPath: OnClick.m_PersistentCalls.m_Calls.Array.data[0].m_Mode
      value: 1
      objectReference: {fileID: 0}
    - target: {fileID: 3283167837295963000, guid: 1f19c3c202fbcc24ca94d914a90a7b47, type: 3}
      propertyPath: m_Name
      value: CreditsButton
      objectReference: {fileID: 0}
    - target: {fileID: 3283167837295963003, guid: 1f19c3c202fbcc24ca94d914a90a7b47, type: 3}
      propertyPath: m_text
      value: 'Credits

'
      objectReference: {fileID: 0}
    - target: {fileID: 3283167837295963005, guid: 1f19c3c202fbcc24ca94d914a90a7b47, type: 3}
      propertyPath: m_LocalPosition.x
      value: 0
      objectReference: {fileID: 0}
    - target: {fileID: 3283167837295963005, guid: 1f19c3c202fbcc24ca94d914a90a7b47, type: 3}
      propertyPath: m_LocalPosition.y
      value: 0
      objectReference: {fileID: 0}
    - target: {fileID: 3283167837295963005, guid: 1f19c3c202fbcc24ca94d914a90a7b47, type: 3}
      propertyPath: m_LocalPosition.z
      value: 0.838
      objectReference: {fileID: 0}
    - target: {fileID: 3283167837295963005, guid: 1f19c3c202fbcc24ca94d914a90a7b47, type: 3}
      propertyPath: m_LocalRotation.x
      value: -0.1734584
      objectReference: {fileID: 0}
    - target: {fileID: 3283167837295963005, guid: 1f19c3c202fbcc24ca94d914a90a7b47, type: 3}
      propertyPath: m_LocalRotation.y
      value: -0.68550146
      objectReference: {fileID: 0}
    - target: {fileID: 3283167837295963005, guid: 1f19c3c202fbcc24ca94d914a90a7b47, type: 3}
      propertyPath: m_LocalRotation.z
      value: 0.68550146
      objectReference: {fileID: 0}
    - target: {fileID: 3283167837295963005, guid: 1f19c3c202fbcc24ca94d914a90a7b47, type: 3}
      propertyPath: m_LocalRotation.w
      value: -0.1734584
      objectReference: {fileID: 0}
    - target: {fileID: 3283167837295963005, guid: 1f19c3c202fbcc24ca94d914a90a7b47, type: 3}
      propertyPath: m_RootOrder
      value: 9
      objectReference: {fileID: 0}
    - target: {fileID: 3283167837295963005, guid: 1f19c3c202fbcc24ca94d914a90a7b47, type: 3}
      propertyPath: m_LocalEulerAnglesHint.x
      value: 90
      objectReference: {fileID: 0}
    - target: {fileID: 3283167837295963005, guid: 1f19c3c202fbcc24ca94d914a90a7b47, type: 3}
      propertyPath: m_LocalEulerAnglesHint.y
      value: -208.4
      objectReference: {fileID: 0}
    - target: {fileID: 3283167837295963005, guid: 1f19c3c202fbcc24ca94d914a90a7b47, type: 3}
      propertyPath: m_LocalEulerAnglesHint.z
      value: 0
      objectReference: {fileID: 0}
    - target: {fileID: 3283167837295963005, guid: 1f19c3c202fbcc24ca94d914a90a7b47, type: 3}
      propertyPath: m_AnchoredPosition.x
      value: -0.433
      objectReference: {fileID: 0}
    - target: {fileID: 3283167837295963005, guid: 1f19c3c202fbcc24ca94d914a90a7b47, type: 3}
      propertyPath: m_AnchoredPosition.y
      value: 0.3
      objectReference: {fileID: 0}
    - target: {fileID: 3283167837295963005, guid: 1f19c3c202fbcc24ca94d914a90a7b47, type: 3}
      propertyPath: m_SizeDelta.x
      value: 30
      objectReference: {fileID: 0}
    - target: {fileID: 3283167837295963005, guid: 1f19c3c202fbcc24ca94d914a90a7b47, type: 3}
      propertyPath: m_SizeDelta.y
      value: 5
      objectReference: {fileID: 0}
    - target: {fileID: 3283167837295963005, guid: 1f19c3c202fbcc24ca94d914a90a7b47, type: 3}
      propertyPath: m_AnchorMin.x
      value: 0.5
      objectReference: {fileID: 0}
    - target: {fileID: 3283167837295963005, guid: 1f19c3c202fbcc24ca94d914a90a7b47, type: 3}
      propertyPath: m_AnchorMin.y
      value: 0.5
      objectReference: {fileID: 0}
    - target: {fileID: 3283167837295963005, guid: 1f19c3c202fbcc24ca94d914a90a7b47, type: 3}
      propertyPath: m_AnchorMax.x
      value: 0.5
      objectReference: {fileID: 0}
    - target: {fileID: 3283167837295963005, guid: 1f19c3c202fbcc24ca94d914a90a7b47, type: 3}
      propertyPath: m_AnchorMax.y
      value: 0.5
      objectReference: {fileID: 0}
    - target: {fileID: 3283167837295963005, guid: 1f19c3c202fbcc24ca94d914a90a7b47, type: 3}
      propertyPath: m_Pivot.x
      value: 0.5
      objectReference: {fileID: 0}
    - target: {fileID: 3283167837295963005, guid: 1f19c3c202fbcc24ca94d914a90a7b47, type: 3}
      propertyPath: m_Pivot.y
      value: 0.5
      objectReference: {fileID: 0}
    m_RemovedComponents: []
  m_SourcePrefab: {fileID: 100100000, guid: 1f19c3c202fbcc24ca94d914a90a7b47, type: 3}
--- !u!1001 &3283167836120336681
PrefabInstance:
  m_ObjectHideFlags: 0
  serializedVersion: 2
  m_Modification:
    m_TransformParent: {fileID: 0}
    m_Modifications:
    - target: {fileID: 3283167836564116294, guid: 1f19c3c202fbcc24ca94d914a90a7b47, type: 3}
      propertyPath: m_Size.y
      value: 6.165424
      objectReference: {fileID: 0}
    - target: {fileID: 3283167836564116294, guid: 1f19c3c202fbcc24ca94d914a90a7b47, type: 3}
      propertyPath: m_Center.y
      value: -0.86818737
      objectReference: {fileID: 0}
    - target: {fileID: 3283167836564116294, guid: 1f19c3c202fbcc24ca94d914a90a7b47, type: 3}
      propertyPath: m_Size.z
      value: 5.745675
      objectReference: {fileID: 0}
    - target: {fileID: 3283167836564116294, guid: 1f19c3c202fbcc24ca94d914a90a7b47, type: 3}
      propertyPath: m_Center.z
      value: 2.6555924
      objectReference: {fileID: 0}
    - target: {fileID: 3283167836564116294, guid: 1f19c3c202fbcc24ca94d914a90a7b47, type: 3}
      propertyPath: m_Size.x
      value: 22.260191
      objectReference: {fileID: 0}
    - target: {fileID: 3283167836564116294, guid: 1f19c3c202fbcc24ca94d914a90a7b47, type: 3}
      propertyPath: m_Center.x
      value: 0
      objectReference: {fileID: 0}
    - target: {fileID: 3283167836564116313, guid: 1f19c3c202fbcc24ca94d914a90a7b47, type: 3}
      propertyPath: OnClick.m_PersistentCalls.m_Calls.Array.data[0].m_Target
      value: 
      objectReference: {fileID: 1698561515}
    - target: {fileID: 3283167836564116313, guid: 1f19c3c202fbcc24ca94d914a90a7b47, type: 3}
      propertyPath: OnClick.m_PersistentCalls.m_Calls.Array.data[0].m_TargetAssemblyTypeName
      value: SceneController, Assembly-CSharp
      objectReference: {fileID: 0}
    - target: {fileID: 3283167836564116313, guid: 1f19c3c202fbcc24ca94d914a90a7b47, type: 3}
      propertyPath: OnClick.m_PersistentCalls.m_Calls.Array.data[0].m_MethodName
      value: LoadSingleplayer
      objectReference: {fileID: 0}
    - target: {fileID: 3283167836564116313, guid: 1f19c3c202fbcc24ca94d914a90a7b47, type: 3}
      propertyPath: OnClick.m_PersistentCalls.m_Calls.Array.data[0].m_Mode
      value: 1
      objectReference: {fileID: 0}
    - target: {fileID: 3283167837295963000, guid: 1f19c3c202fbcc24ca94d914a90a7b47, type: 3}
      propertyPath: m_Name
      value: SinglePlayerButton
      objectReference: {fileID: 0}
    - target: {fileID: 3283167837295963005, guid: 1f19c3c202fbcc24ca94d914a90a7b47, type: 3}
      propertyPath: m_LocalPosition.x
      value: 0
      objectReference: {fileID: 0}
    - target: {fileID: 3283167837295963005, guid: 1f19c3c202fbcc24ca94d914a90a7b47, type: 3}
      propertyPath: m_LocalPosition.y
      value: 0
      objectReference: {fileID: 0}
    - target: {fileID: 3283167837295963005, guid: 1f19c3c202fbcc24ca94d914a90a7b47, type: 3}
      propertyPath: m_LocalPosition.z
      value: -0.93
      objectReference: {fileID: 0}
    - target: {fileID: 3283167837295963005, guid: 1f19c3c202fbcc24ca94d914a90a7b47, type: 3}
      propertyPath: m_LocalRotation.x
      value: 0.7071068
      objectReference: {fileID: 0}
    - target: {fileID: 3283167837295963005, guid: 1f19c3c202fbcc24ca94d914a90a7b47, type: 3}
      propertyPath: m_LocalRotation.y
      value: 0
      objectReference: {fileID: 0}
    - target: {fileID: 3283167837295963005, guid: 1f19c3c202fbcc24ca94d914a90a7b47, type: 3}
      propertyPath: m_LocalRotation.z
      value: 0
      objectReference: {fileID: 0}
    - target: {fileID: 3283167837295963005, guid: 1f19c3c202fbcc24ca94d914a90a7b47, type: 3}
      propertyPath: m_LocalRotation.w
      value: 0.7071068
      objectReference: {fileID: 0}
    - target: {fileID: 3283167837295963005, guid: 1f19c3c202fbcc24ca94d914a90a7b47, type: 3}
      propertyPath: m_RootOrder
      value: 3
      objectReference: {fileID: 0}
    - target: {fileID: 3283167837295963005, guid: 1f19c3c202fbcc24ca94d914a90a7b47, type: 3}
      propertyPath: m_LocalEulerAnglesHint.x
      value: 90
      objectReference: {fileID: 0}
    - target: {fileID: 3283167837295963005, guid: 1f19c3c202fbcc24ca94d914a90a7b47, type: 3}
      propertyPath: m_LocalEulerAnglesHint.y
      value: 0
      objectReference: {fileID: 0}
    - target: {fileID: 3283167837295963005, guid: 1f19c3c202fbcc24ca94d914a90a7b47, type: 3}
      propertyPath: m_LocalEulerAnglesHint.z
      value: 0
      objectReference: {fileID: 0}
    - target: {fileID: 3283167837295963005, guid: 1f19c3c202fbcc24ca94d914a90a7b47, type: 3}
      propertyPath: m_AnchoredPosition.x
      value: 0
      objectReference: {fileID: 0}
    - target: {fileID: 3283167837295963005, guid: 1f19c3c202fbcc24ca94d914a90a7b47, type: 3}
      propertyPath: m_AnchoredPosition.y
      value: 0.3
      objectReference: {fileID: 0}
    - target: {fileID: 3283167837295963005, guid: 1f19c3c202fbcc24ca94d914a90a7b47, type: 3}
      propertyPath: m_SizeDelta.x
      value: 30
      objectReference: {fileID: 0}
    - target: {fileID: 3283167837295963005, guid: 1f19c3c202fbcc24ca94d914a90a7b47, type: 3}
      propertyPath: m_SizeDelta.y
      value: 5
      objectReference: {fileID: 0}
    - target: {fileID: 3283167837295963005, guid: 1f19c3c202fbcc24ca94d914a90a7b47, type: 3}
      propertyPath: m_AnchorMin.x
      value: 0.5
      objectReference: {fileID: 0}
    - target: {fileID: 3283167837295963005, guid: 1f19c3c202fbcc24ca94d914a90a7b47, type: 3}
      propertyPath: m_AnchorMin.y
      value: 0.5
      objectReference: {fileID: 0}
    - target: {fileID: 3283167837295963005, guid: 1f19c3c202fbcc24ca94d914a90a7b47, type: 3}
      propertyPath: m_AnchorMax.x
      value: 0.5
      objectReference: {fileID: 0}
    - target: {fileID: 3283167837295963005, guid: 1f19c3c202fbcc24ca94d914a90a7b47, type: 3}
      propertyPath: m_AnchorMax.y
      value: 0.5
      objectReference: {fileID: 0}
    - target: {fileID: 3283167837295963005, guid: 1f19c3c202fbcc24ca94d914a90a7b47, type: 3}
      propertyPath: m_Pivot.x
      value: 0.5
      objectReference: {fileID: 0}
    - target: {fileID: 3283167837295963005, guid: 1f19c3c202fbcc24ca94d914a90a7b47, type: 3}
      propertyPath: m_Pivot.y
      value: 0.5
      objectReference: {fileID: 0}
    m_RemovedComponents: []
  m_SourcePrefab: {fileID: 100100000, guid: 1f19c3c202fbcc24ca94d914a90a7b47, type: 3}
--- !u!1001 &4013137824533987774
PrefabInstance:
  m_ObjectHideFlags: 0
  serializedVersion: 2
  m_Modification:
    m_TransformParent: {fileID: 0}
    m_Modifications:
    - target: {fileID: 877963339282046284, guid: 2136bb7c99fb71841b318e07006d651d, type: 3}
      propertyPath: m_Name
      value: AudioController
      objectReference: {fileID: 0}
    - target: {fileID: 8700344498968858748, guid: 2136bb7c99fb71841b318e07006d651d, type: 3}
      propertyPath: m_LocalPosition.x
      value: 0
      objectReference: {fileID: 0}
    - target: {fileID: 8700344498968858748, guid: 2136bb7c99fb71841b318e07006d651d, type: 3}
      propertyPath: m_LocalPosition.y
      value: 0
      objectReference: {fileID: 0}
    - target: {fileID: 8700344498968858748, guid: 2136bb7c99fb71841b318e07006d651d, type: 3}
      propertyPath: m_LocalPosition.z
      value: 0
      objectReference: {fileID: 0}
    - target: {fileID: 8700344498968858748, guid: 2136bb7c99fb71841b318e07006d651d, type: 3}
      propertyPath: m_LocalRotation.x
      value: 0
      objectReference: {fileID: 0}
    - target: {fileID: 8700344498968858748, guid: 2136bb7c99fb71841b318e07006d651d, type: 3}
      propertyPath: m_LocalRotation.y
      value: 0
      objectReference: {fileID: 0}
    - target: {fileID: 8700344498968858748, guid: 2136bb7c99fb71841b318e07006d651d, type: 3}
      propertyPath: m_LocalRotation.z
      value: 0
      objectReference: {fileID: 0}
    - target: {fileID: 8700344498968858748, guid: 2136bb7c99fb71841b318e07006d651d, type: 3}
      propertyPath: m_LocalRotation.w
      value: 1
      objectReference: {fileID: 0}
    - target: {fileID: 8700344498968858748, guid: 2136bb7c99fb71841b318e07006d651d, type: 3}
      propertyPath: m_RootOrder
      value: 8
      objectReference: {fileID: 0}
    - target: {fileID: 8700344498968858748, guid: 2136bb7c99fb71841b318e07006d651d, type: 3}
      propertyPath: m_LocalEulerAnglesHint.x
      value: 0
      objectReference: {fileID: 0}
    - target: {fileID: 8700344498968858748, guid: 2136bb7c99fb71841b318e07006d651d, type: 3}
      propertyPath: m_LocalEulerAnglesHint.y
      value: 0
      objectReference: {fileID: 0}
    - target: {fileID: 8700344498968858748, guid: 2136bb7c99fb71841b318e07006d651d, type: 3}
      propertyPath: m_LocalEulerAnglesHint.z
      value: 0
      objectReference: {fileID: 0}
    m_RemovedComponents: []
  m_SourcePrefab: {fileID: 100100000, guid: 2136bb7c99fb71841b318e07006d651d, type: 3}
